{
   "Rising Pune Supergiants": 108,
   "Mumbai Indians": 102,
   "Kolkata Knight Riders": 122,
   "Delhi Daredevils": 106,
   "Gujarat Lions": 98,
   "Kings XI Punjab": 100,
   "Sunrisers Hyderabad": 107,
   "Royal Challengers Bangalore": 156
}