[
     {
          "2008": "Umar Gul | 205.26"
     },
     {
          "2009": "MS Gony | 185.71"
     },
     {
          "2010": "MC Henriques | 220"
     },
     {
          "2011": "SB Styris | 250"
     },
     {
          "2012": "J Syed Mohammad | 400"
     },
     {
          "2013": "RV Gomez | 400"
     },
     {
          "2014": "AN Ahmed | 400"
     },
     {
          "2015": "MJ McClenaghan | 216.67"
     },
     {
          "2016": "R Dhawan | 233.33"
     },
     {
          "2017": "TG Southee | 233.33"
     }
]